{
  "id": "tormenta20",
  "name": "tormenta20",
  "title": "Tormenta20",
  "description": "Sistema NÃO OFICIAL de Tormenta20 para FoundryVTT!",
  "version": "1.3.100",
  "minimumCoreVersion": "9",
  "compatibleCoreVersion": "9",
  "author": "Vizael",
  "authors": {"name":"Vizael"},
  "esmodules": ["module/tormenta20.js"],
  "styles": ["css/tormenta20.css","css/tormenta20-tabbed.css"],
  "scripts": [],
  "packs": [
    {
      "name": "poderes",
      "label": "Poderes",
      "system": "tormenta20",
      "path": "./packs/poderes.db",
      "entity": "Item"
    },
    {
      "name": "equipamentos",
      "label": "Equipamentos",
      "system": "tormenta20",
      "path": "./packs/equipamentos.db",
      "entity": "Item"
    },
    {
      "name": "equipamentos-magicos",
      "label": "Itens Mágicos",
      "system": "tormenta20",
      "path": "./packs/equipamentos-magicos.db",
      "entity": "Item"
    },
    {
      "name": "macros",
      "label": "Macros",
      "system": "tormenta20",
      "path": "./packs/macros.db",
      "entity": "Macro"
    },
    {
      "name": "magias",
      "label": "Magias",
      "system": "tormenta20",
      "path": "./packs/magias.db",
      "entity": "Item"
    },
    {
      "name": "ameacas",
      "label": "Ameaças",
      "system": "tormenta20",
      "path": "./packs/ameacas.db",
      "entity": "Actor"
    },
    {
      "name": "condicoes",
      "label": "Condições",
      "system": "tormenta20",
      "path": "./packs/condicoes.db",
      "entity": "JournalEntry"
    },
    {
      "name": "classes",
      "label": "Classes",
      "system": "tormenta20",
      "path": "./packs/classes.db",
      "entity": "Item"
    },
    {
      "name": "pericias",
      "label": "Perícias",
      "system": "tormenta20",
      "path": "./packs/pericias.db",
      "entity": "JournalEntry"
    },
    {
      "name": "pocoes",
      "label": "Poções",
      "system": "tormenta20",
      "path": "./packs/pocoes.db",
      "entity": "Item"
    },
    {
      "name": "tabelas-de-tesouro",
      "label": "Tabelas de Tesouro",
      "system": "tormenta20",
      "path": "./packs/tabelas-de-tesouro.db",
      "entity": "RollTable"
    },
    {
      "name": "errata-e-faq",
      "label": "Errata E FAQ",
      "system": "tormenta20",
      "path": "./packs/errata-e-faq.db",
      "entity": "JournalEntry"
    }
  ],
  "languages": [
    {
      "lang": "en",
      "name": "English",
      "path": "lang/pt-BR.json"
    },
    {
      "lang": "pt-BR",
      "name": "Português",
      "path": "lang/pt-BR.json"
    }
  ],
  "gridDistance": 1.5,
  "gridUnits": "m",
  "primaryTokenAttribute": "attributes.pv",
  "secondaryTokenAttribute": "attributes.pm",
  "url": "https://gitlab.com/vizael/Tormenta20",
  "manifest": "https://gitlab.com/vizael/Tormenta20/-/raw/master/system.json",
  "download": "https://gitlab.com/vizael/Tormenta20/-/archive/master/Tormenta20-master.zip",
  "license": "LICENSE.txt",
  "bugs": "https://gitlab.com/vizael/Tormenta20/-/issues",
  "allowBugReporter": true
}
